<?xml version="1.0" encoding="utf-8"?>
<!-- Generator: Adobe Illustrator 21.1.0, SVG Export Plug-In . SVG Version: 6.00 Build 0)  -->
<svg version="1.1" id="Layer_1" xmlns="http://www.w3.org/2000/svg" xmlns:xlink="http://www.w3.org/1999/xlink" x="0px" y="0px"
	 viewBox="0 0 572 288" style="enable-background:new 0 0 572 288;" xml:space="preserve">
<style type="text/css">
	.st0{fill:#404040;}
	.st1{fill:#B18BE8;stroke:#404040;stroke-width:4;stroke-linecap:round;stroke-linejoin:round;stroke-miterlimit:10;}
	.st2{fill:#B3E3FF;stroke:#404040;stroke-width:4;stroke-miterlimit:10;}
	.st3{fill:none;stroke:#404040;stroke-width:4;stroke-linecap:round;stroke-linejoin:round;stroke-miterlimit:10;}
	.st4{fill:#FFFFFF;stroke:#404040;stroke-width:4;stroke-linecap:round;stroke-linejoin:round;stroke-miterlimit:10;}
	.st5{font-family:'MyriadPro-Regular';}
	.st6{font-size:72px;}
</style>
<path class="st0" d="M361.1,153c1.1,0,2,0.9,2,2s-0.9,2-2,2c-1.1,0-2-0.9-2-2C359.1,154,360,153,361.1,153z M341.1,153
	c1.1,0,2,0.9,2,2s-0.9,2-2,2c-1.1,0-2-0.9-2-2C339.1,154,340,153,341.1,153z M321.1,153c1.1,0,2,0.9,2,2s-0.9,2-2,2
	c-1.1,0-2-0.9-2-2C319.1,154,320,153,321.1,153z M379,156c0.4-0.7,1.1-1.1,1.8-1.2c0.2,0,0.5,0.1,0.8,0.2c1,0.4,1.5,1.6,1,2.6
	c-0.4,1-1.6,1.4-2.6,1S378.5,157,379,156L379,156z M392.7,170.1c1,0,1.8,0.6,2,1.6s-0.5,2.1-1.6,2.3c-1,0.2-2.1-0.5-2.3-1.6
	c-0.2-1,0.5-2.1,1.6-2.3H392.7z M393.2,190c1.1,0,2,0.9,2,2s-0.9,2-2,2c-1.1,0-2-0.9-2-2S392.1,190,393.2,190z"/>
<g id="Making_x5F_a_x5F_pull_x5F_request">
	<path class="st1" d="M21.5,123.6h177.2v108.3H21.5V123.6z"/>
	<path class="st2" d="M38.2,140.3H182v74.8H38.2V140.3z"/>
	<path class="st1" d="M207.5,281.5H12.7l8.8-37.9h177.2L207.5,281.5z"/>
</g>
<path class="st3" d="M94.6,160.4V195"/>
<circle class="st4" cx="94.6" cy="160.4" r="8.7"/>
<circle class="st4" cx="94.6" cy="160.4" r="8.7"/>
<circle class="st4" cx="94.6" cy="195" r="8.7"/>
<path class="st3" d="M113.3,160.4h3.6c4.8,0,8.7,3.9,8.7,8.7V195 M116.9,165l-4.5-4.5l4.5-4.5"/>
<circle class="st4" cx="125.6" cy="195" r="8.7"/>
<g id="Making_x5F_a_x5F_pull_x5F_request_1_">
	<path class="st1" d="M378.5,124.8h177.2v108.3H378.5V124.8z"/>
	<path class="st2" d="M395.2,141.5H539v74.8H395.2V141.5z"/>
	<path class="st1" d="M564.5,282.7H369.7l8.8-37.9h177.2L564.5,282.7z"/>
</g>
<path class="st3" d="M451.6,161.6v34.6"/>
<circle class="st4" cx="451.6" cy="161.6" r="8.7"/>
<circle class="st4" cx="451.6" cy="161.6" r="8.7"/>
<circle class="st4" cx="451.6" cy="196.2" r="8.7"/>
<path class="st3" d="M470.3,161.6h3.6c4.8,0,8.7,3.9,8.7,8.7v25.9 M473.9,166.2l-4.5-4.5l4.5-4.5"/>
<circle class="st4" cx="482.6" cy="196.2" r="8.7"/>
<path class="st0" d="M253,155.2c0-1.1,0.9-2,2-2s2,0.9,2,2s-0.9,2-2,2S253,156.3,253,155.2z M233,155.2c0-1.1,0.9-2,2-2s2,0.9,2,2
	s-0.9,2-2,2S233,156.3,233,155.2z M213,155.2c0-1.1,0.9-2,2-2s2,0.9,2,2s-0.9,2-2,2S213,156.3,213,155.2z"/>
<text transform="matrix(1 0 0 1 273.3848 176.2691)" class="st5 st6">?</text>
</svg>
