<?xml version="1.0" encoding="utf-8"?>
<!-- Generator: Adobe Illustrator 21.1.0, SVG Export Plug-In . SVG Version: 6.00 Build 0)  -->
<svg version="1.1" id="Layer_1" xmlns="http://www.w3.org/2000/svg" xmlns:xlink="http://www.w3.org/1999/xlink" x="0px" y="0px"
	 viewBox="0 0 800 388" style="enable-background:new 0 0 800 388;" xml:space="preserve">
<style type="text/css">
	.st0{fill:none;stroke:#414141;stroke-width:4;stroke-linecap:round;stroke-linejoin:round;stroke-miterlimit:10;}
	.st1{fill:#FFFFFF;stroke:#414141;stroke-width:4;stroke-linecap:round;stroke-linejoin:round;stroke-miterlimit:10;}
	.st2{fill:#59ADDF;stroke:#414141;stroke-width:4;stroke-linejoin:round;stroke-miterlimit:10;}
	.st3{fill:#B5E1F8;stroke:#414141;stroke-width:4;stroke-linejoin:round;stroke-miterlimit:10;}
	.st4{fill:#414141;}
</style>
<path class="st0" d="M54.3,331.8h620.1"/>
<circle class="st1" cx="245.1" cy="331.8" r="48"/>
<circle class="st1" cx="55" cy="331.8" r="48"/>
<circle class="st1" cx="436.1" cy="331.8" r="48"/>
<circle class="st2" cx="626.4" cy="331.8" r="48"/>
<path class="st0" d="M627.6,229.4v-53.7 M652.5,209.5l-24.9,24.7l-24.7-24.7"/>
<path class="st3" d="M465.3,8.2H793v114.2H465.3V8.2z"/>
<path class="st4" d="M595.4,77.2v-19l-8.2,19h-3.2l-8.2-19v19h-3.4V53h4.6l8.7,19.9l8.7-19.9h4.6v24.2H595.4z"/>
<path class="st4" d="M610,67.9l4.6-0.7c0.9-0.2,1.4-0.7,1.4-1.1c0-1.6-1.1-3-3.7-3c-2.3,0-3.4,1.4-3.7,3.4l-3-0.7
	c0.2-3.2,3.2-5.3,6.9-5.3c5,0,6.9,2.7,6.9,5.9v8.2c0,1.4,0.2,2.3,0.2,2.7h-3.2c0-0.5-0.2-1.1-0.2-2.3c-0.7,1.1-2.3,2.7-5.3,2.7
	c-3.4,0-5.5-2.3-5.5-5C605,69.9,607.2,68.1,610,67.9z M615.7,70.2v-0.7l-5,0.7c-1.4,0.2-2.5,0.9-2.5,2.5c0,1.1,1.1,2.3,2.7,2.3
	C613.6,75,615.7,73.8,615.7,70.2z"/>
<path class="st4" d="M627.1,72c0.2,1.8,1.6,3.2,3.9,3.2c1.8,0,2.7-1.1,2.7-2.3c0-0.9-0.7-1.8-2.1-2.1l-2.7-0.7
	c-2.5-0.5-4.1-2.3-4.1-4.6c0-2.7,2.7-5.3,5.9-5.3c4.6,0,5.9,3,6.2,4.3l-2.7,1.1c-0.2-0.9-0.9-2.7-3.4-2.7c-1.6,0-2.7,1.1-2.7,2.3
	c0,0.9,0.7,1.8,1.8,2.1l2.7,0.7c3,0.7,4.6,2.5,4.6,4.8c0,2.3-2.1,5-5.9,5c-4.6,0-6.4-3-6.6-4.8L627.1,72z"/>
<path class="st4" d="M647.2,60.8h3.7v3h-3.7v8.7c0,1.6,0.7,2.3,2.3,2.3c0.5,0,0.9,0,1.4-0.2v2.7c-0.2,0-1.1,0.2-2.3,0.2
	c-2.7,0-4.6-1.8-4.6-4.8v-9.1h-3.2v-3h0.9c1.8,0,2.5-1.1,2.5-2.5v-2.7h3V60.8z"/>
<path class="st4" d="M671,72.4c-0.9,3-3.7,5.3-7.3,5.3c-4.3,0-8.2-3.2-8.2-8.9c0-5.3,3.7-8.7,7.8-8.7c5,0,8,3.4,8,8.7
	c0,0.5,0,0.9,0,0.9h-12.3c0,3,2.3,5,5,5s4.1-1.4,4.6-3.4L671,72.4z M667.8,67.2c0-2.3-1.6-4.1-4.6-4.1c-2.7,0-4.3,2.1-4.6,4.1H667.8
	z"/>
<path class="st4" d="M686.1,64c-0.5,0-0.9,0-1.4,0c-2.7,0-4.6,1.4-4.6,5v8.2h-3.2V60.8h3.2v3c1.1-2.5,3.2-3.2,5-3.2
	c0.5,0,0.9,0,1.1,0V64H686.1z"/>
</svg>
